[
  {
    "_id": "9a8eb34f-c540-43c4-b80b-32c8376d06b5",
    "colName": "Products",
    "created": "2022-01-06T20:10:47.642Z",
    "sortNum": 10000,
    "folders": []
  },
  {
    "_id": "30626af6-c694-4c0f-9c9e-33ed9392b89d",
    "colName": "Categories",
    "created": "2022-01-06T20:10:52.928Z",
    "sortNum": 20000,
    "folders": []
  },
  {
    "_id": "17f94776-9f8e-4463-8181-cac78bf142f8",
    "colName": "Accounts",
    "created": "2022-01-07T21:35:51.113Z",
    "sortNum": 15000,
    "folders": []
  },
  {
    "_id": "801b423d-acc8-40e1-a577-cdf22f3cc18a",
    "colName": "Authenticate",
    "created": "2022-01-21T20:11:37.199Z",
    "sortNum": 17500,
    "folders": []
  },
  {
    "_id": "735498c2-0f0f-442a-ad3a-7fc18eaa63e2",
    "colName": "Events",
    "created": "2022-01-29T22:23:07.191Z",
    "sortNum": 30000,
    "folders": []
  },
  {
    "_id": "bf076a04-b2d9-43de-b56b-0fcf3c35b6bc",
    "colName": "Search",
    "created": "2022-02-03T21:08:00.654Z",
    "sortNum": 40000,
    "folders": []
  },
  {
    "_id": "09904803-aa08-43b7-9c04-65d8f3448b33",
    "colName": "ProductTypes",
    "created": "2022-02-09T23:45:57.531Z",
    "sortNum": 25000,
    "folders": []
  },
  {
    "_id": "cc73cdb7-2223-409b-a177-4a92572ab6fd",
    "colName": "Stores",
    "created": "2022-02-22T17:19:26.495Z",
    "sortNum": 50000,
    "folders": []
  },
  {
    "_id": "3a2d53d6-858d-48c0-ae09-f355bde0fc24",
    "colName": "Orders",
    "created": "2022-02-26T20:50:51.360Z",
    "sortNum": 60000,
    "folders": []
  },
  {
    "_id": "31cbd210-bfb8-429e-8225-422707fb9080",
    "colName": "PaymentProcessor",
    "created": "2022-03-04T22:05:28.441Z",
    "sortNum": 55000,
    "folders": []
  },
  {
    "_id": "4abe06c7-c7f7-4e92-a4ae-be08e30908e6",
    "colName": "OrderStatuses",
    "created": "2022-03-06T19:27:02.688Z",
    "sortNum": 57500,
    "folders": []
  },
  {
    "_id": "919981dd-4ec7-4a26-a4c4-4f2b756c5e8d",
    "colName": "Regions",
    "created": "2022-03-06T20:54:10.283Z",
    "sortNum": 58750,
    "folders": []
  },
  {
    "_id": "30fe857b-8665-4583-8760-c43d3ce7a2f9",
    "colName": "Countries",
    "created": "2022-03-06T21:11:06.010Z",
    "sortNum": 59375,
    "folders": []
  },
  {
    "_id": "31f533c4-6c40-4c6d-9e00-1b2894df2d8a",
    "colName": "Reviews",
    "created": "2022-03-12T23:32:50.201Z",
    "sortNum": 22500,
    "folders": []
  }
]